Negative control;
L-arabinose;arab__L
N-acetyl-D-glucosamine;acgam
D-saccharic acid;
Succinic acid;succ
D-galactose;gal_bD
L-aspartic acid;asp__L
L-proline;pro__L
D-alanine;ala_B
D-trehalose;tre
D-mannose;man
Dulcitol;galt
D-serine;ser__D
D-sorbitol;sbt__D
Glycerol;glyc
L-fucose;fuc__L
D-glucoronic acid;
D-gluconic acid;glcn
D.L-a-glycerol-phosphate;glyc3p
D-xylose;xyl__D
L-lactic acid;lac__L
Formic acid;for
D-mannitol;mnl
L-glutamic acid;glu__L
D-glucose-6-phosphate;g6p
D-galactonic acid-gammalactone;
D-L-malic acid;mal__L
D-ribose;rib__D
Tween 20;
L-rhamnose;rmn
D-fructose;fru
Acetic acid;ac
a-D-glucose;glc_A
Maltose;malt
D-melibiose;melib
Thymidine;thymd
L-asparagine;asn__L
D-aspartic acid;asp__D
D-glucosaminic acid;
1.2.-Propanediol;12ppd__R
Tween 40;
A-Keto-glutaric acid;akg
a-Keto-butyric acid;2obut
a-methyl-D-galactoside;
a-D-lactose;lcts
Lactulose;lctls
Sucrose;sucr
Uridine;uri
L-glutamine;gln__L
M-tartaric acid;tartr__M
D-Glucose-1-phosphate;g1p
D-fructose-6-phosphate;f6p__D
Tween 80;
a-Hydroxy glutaric acid-gammalactone;
a-Hydroxy butyric acid;2hb
b-methyl-D-glucoside;mbdg
Adonitol;rbt
Maltotriose;malttr
2-Deoxy adenosine;dad_2
Adenosine;adn
Glycyl-L-aspartic acid;gly_asp__L
Citric acid;cit
M-inositol;inost
D-threonine;
Fumaric acid;fum
Bromo succinic acid;
Propionic acid;ppa
Mucic acid;galct__D
Glycolic acid;glyclt
Glycoxylic acid;
D-cellobiose;cellb
Inosine;ins
Glycyl-L-glutamic acid;gly_glu__L
Tricarballylic acid;tcb
L-serine;ser__L
L-threonine;thr__L
L-alanine;ala__L
L-alanyl glycine;L_alagly
Acetoacetic acid;acac
N-acetyl-b-D-Mannosamine;acmana
Mono methyl succinate;mesuc
Methyl pyruvate;mepyr
D-malic acid;mal__D
L-malic acid;mal__L
Glycyl-L-proline;gly_pro__L
P-hydroxy phenyl acetic acid;4hoxpac
M-hydroxy phenyl acetic acid;3hoxpac
Tyramine;tym
D-psicose;
L-lyxose;lxy__L
Glucuronamide;
Pyruvic acid;pyr
L-galactonic acid-y-lactone;
D-galacturonic acid;galur
Phenylethylamine;peamn
2-Aminoethanol;etha
